C:\Users\Evgeniy\source\repos\Skillbox\MiddlePart2\Game.cpp;C:\Users\Evgeniy\source\repos\Skillbox\MiddlePart2\MiddlePart2\x64\Debug\Game.obj
C:\Users\Evgeniy\source\repos\Skillbox\MiddlePart2\MiddlePart2.cpp;C:\Users\Evgeniy\source\repos\Skillbox\MiddlePart2\MiddlePart2\x64\Debug\MiddlePart2.obj
C:\Users\Evgeniy\source\repos\Skillbox\MiddlePart2\Table.cpp;C:\Users\Evgeniy\source\repos\Skillbox\MiddlePart2\MiddlePart2\x64\Debug\Table.obj
