^C:\USERS\EVGENIY\SOURCE\REPOS\SKILLBOX\MIDDLEPART2\GAME.CPP|C:\USERS\EVGENIY\SOURCE\REPOS\SKILLBOX\MIDDLEPART2\MIDDLEPART2.CPP|C:\USERS\EVGENIY\SOURCE\REPOS\SKILLBOX\MIDDLEPART2\TABLE.CPP
C:\USERS\EVGENIY\SOURCE\REPOS\SKILLBOX\MIDDLEPART2\X64\DEBUG\VC143.PDB
C:\USERS\EVGENIY\SOURCE\REPOS\SKILLBOX\MIDDLEPART2\X64\DEBUG\VC143.IDB
C:\USERS\EVGENIY\SOURCE\REPOS\SKILLBOX\MIDDLEPART2\X64\DEBUG\TABLE.OBJ
C:\USERS\EVGENIY\SOURCE\REPOS\SKILLBOX\MIDDLEPART2\X64\DEBUG\MIDDLEPART2.OBJ
C:\USERS\EVGENIY\SOURCE\REPOS\SKILLBOX\MIDDLEPART2\X64\DEBUG\GAME.OBJ
^C:\USERS\EVGENIY\SOURCE\REPOS\SKILLBOX\MIDDLEPART2\MIDDLEPART2.CPP
C:\USERS\EVGENIY\SOURCE\REPOS\SKILLBOX\MIDDLEPART2\X64\DEBUG\VC143.PDB
^C:\USERS\EVGENIY\SOURCE\REPOS\SKILLBOX\MIDDLEPART2\TABLE.CPP
C:\USERS\EVGENIY\SOURCE\REPOS\SKILLBOX\MIDDLEPART2\X64\DEBUG\VC143.PDB
^C:\USERS\EVGENIY\SOURCE\REPOS\SKILLBOX\MIDDLEPART2\GAME.CPP
C:\USERS\EVGENIY\SOURCE\REPOS\SKILLBOX\MIDDLEPART2\X64\DEBUG\VC143.PDB
C:\USERS\EVGENIY\SOURCE\REPOS\SKILLBOX\MIDDLEPART2\X64\DEBUG\VC143.IDB
C:\USERS\EVGENIY\SOURCE\REPOS\SKILLBOX\MIDDLEPART2\X64\DEBUG\GAME.OBJ
