^C:\USERS\EVGENIY\SOURCE\REPOS\SKILLBOX\MIDDLEPART2\X64\DEBUG\GAME.OBJ|C:\USERS\EVGENIY\SOURCE\REPOS\SKILLBOX\MIDDLEPART2\X64\DEBUG\MIDDLEPART2.OBJ|C:\USERS\EVGENIY\SOURCE\REPOS\SKILLBOX\MIDDLEPART2\X64\DEBUG\TABLE.OBJ
/OUT:"C:\USERS\EVGENIY\SOURCE\REPOS\SKILLBOX\MIDDLEPART2\X64\DEBUG\MIDDLEPART2.EXE" /INCREMENTAL /ILK:"X64\DEBUG\MIDDLEPART2.ILK" /NOLOGO /LIBPATH:"C:\LIBRARIES\VCPKG\VCPKG\INSTALLED\X64-WINDOWS\DEBUG\LIB" /LIBPATH:"C:\LIBRARIES\VCPKG\VCPKG\INSTALLED\X64-WINDOWS\DEBUG\LIB\MANUAL-LINK" KERNEL32.LIB USER32.LIB GDI32.LIB WINSPOOL.LIB COMDLG32.LIB ADVAPI32.LIB SHELL32.LIB OLE32.LIB OLEAUT32.LIB UUID.LIB ODBC32.LIB ODBCCP32.LIB "C:\LIBRARIES\VCPKG\VCPKG\INSTALLED\X64-WINDOWS\DEBUG\LIB\*.LIB" /MANIFEST /MANIFESTUAC:"level='asInvoker' uiAccess='false'" /manifest:embed /DEBUG /PDB:"C:\USERS\EVGENIY\SOURCE\REPOS\SKILLBOX\MIDDLEPART2\X64\DEBUG\MIDDLEPART2.PDB" /SUBSYSTEM:CONSOLE /TLBID:1 /DYNAMICBASE /NXCOMPAT /IMPLIB:"C:\USERS\EVGENIY\SOURCE\REPOS\SKILLBOX\MIDDLEPART2\X64\DEBUG\MIDDLEPART2.LIB" /MACHINE:X64 X64\DEBUG\GAME.OBJ
X64\DEBUG\MIDDLEPART2.OBJ
X64\DEBUG\TABLE.OBJ
